{
"O+":{"acepcion":"mujer"},
":-)":{"acepcion":"sonriendo"},
":)":{"acepcion":"sonriendo"},
":-O":{"acepcion":"sorpresa"},
":O":{"acepcion":"sorpresa"},
":0":{"acepcion":"sorpresa"},
":o":{"acepcion":"sorpresa"},
":-@":{"acepcion":"gritar"},
":-D":{"acepcion":"hablar sonriendo"},
":C)":{"acepcion":"narizotas"},
":-)´":{"acepcion":"caerse la baba"},
"X-o":{"acepcion":"estornudo"},
":>)":{"acepcion":"nariz aguileña"},
":-Q":{"acepcion":"fumando"},
":-)8":{"acepcion":"pechugona"},
":-P":{"acepcion":"sacar la lengua"},
".-)":{"acepcion":"tuerto"},
"(:-$":{"acepcion":"enfermo"},
":-i":{"acepcion":"fumando"},
"@:-)":{"acepcion":"con turbante"},
"|-o":{"acepcion":"roncando"},
":x(":{"acepcion":"constipado"},
"(:-)":{"acepcion":"calvo"},
"%-(":{"acepcion":"mareado"},
"xD":{"acepcion":"tronchado de risa"},
":-W":{"acepcion":"hablar con lengua viperina"},
":-{":{"acepcion":"de labios gruesos"},
"&:-)":{"acepcion":"con pelo rizado"},
"=:-)":{"acepcion":"con pelos punky"},
"P:-)":{"acepcion":"con tupé de elvis"},
":-|":{"acepcion":"inexpresivo"},
":-{)":{"acepcion":"con bigote"},
"O->":{"acepcion":"hombre"},
";-)":{"acepcion":"guiño de complicidad"},
"(@_@)":{"acepcion":"alucino"},
":#)":{"acepcion":"borracho"},
"O:-)":{"acepcion":"inocentón"},
":-x":{"acepcion":"besos"},
":x":{"acepcion":"besos"},
":´(":{"acepcion":"llorar"},
"|-)":{"acepcion":"dormido"},
":-(":{"acepcion":"tristeza"},
":(":{"acepcion":"tristeza"},
":´)":{"acepcion":"llorar de emoción"},
":')":{"acepcion":"llorar de emoción"},
":-/":{"acepcion":"mosqueado"},
"X-D":{"acepcion":"tronchado de risa"},
">:-)":{"acepcion":"sonrisa diabólica"},
":-(#)":{"acepcion":"con corrector dental"},
"C:-)":{"acepcion":"con capacidad mental"},
"%#)":{"acepcion":"borracho y mareado"},
":-9":{"acepcion":"relamerse"},
":-?":{"acepcion":"bubitativo"},
"<:-)":{"acepcion":"tontorrón"},
"P-)":{"acepcion":"con un parche pirata" }
}
